<?xml version="1.0" encoding="utf-8"?>
<!-- Generator: Adobe Illustrator 19.0.0, SVG Export Plug-In . SVG Version: 6.00 Build 0)  -->
<svg version="1.1" id="Layer_1" xmlns="http://www.w3.org/2000/svg" xmlns:xlink="http://www.w3.org/1999/xlink" x="0px" y="0px"
	 viewBox="0 0 500 83" style="enable-background:new 0 0 500 83;" xml:space="preserve">
<style type="text/css">
	.st0{fill:#FFFFFF;}
</style>
<path id="XMLID_29_" d="M35.8,22.3v13h28.8v12H35.8v23.4H22.5V10.3h46v12H35.8z"/>
<path id="XMLID_31_" d="M140.4,52.6c-1.6,3.8-3.8,7.1-6.7,9.9s-6.2,5.1-10.2,6.7c-3.9,1.6-8.2,2.5-12.9,2.5c-4.7,0-8.9-0.8-12.9-2.5
	c-3.9-1.6-7.3-3.9-10.1-6.6c-2.8-2.8-5.1-6.1-6.6-9.8c-1.6-3.8-2.4-7.8-2.4-12.1v-0.2c0-4.3,0.8-8.4,2.4-12.1
	c1.6-3.8,3.8-7.1,6.7-9.9s6.2-5.1,10.2-6.7c3.9-1.6,8.2-2.5,12.9-2.5c4.7,0,8.9,0.8,12.9,2.5c3.9,1.6,7.3,3.9,10.1,6.6
	c2.8,2.8,5.1,6.1,6.6,9.8c1.6,3.8,2.4,7.8,2.4,12.1v0.2C142.8,44.8,142,48.9,140.4,52.6z M128.9,40.5c0-2.6-0.4-5-1.3-7.3
	c-0.9-2.3-2.2-4.3-3.8-6c-1.6-1.7-3.6-3.1-5.8-4.1c-2.2-1-4.7-1.5-7.3-1.5c-2.7,0-5.2,0.5-7.4,1.5c-2.2,1-4.1,2.3-5.7,4.1
	c-1.6,1.7-2.8,3.7-3.7,6c-0.9,2.3-1.3,4.7-1.3,7.3v0.2c0,2.6,0.4,5,1.3,7.3c0.9,2.3,2.2,4.3,3.8,6c1.6,1.7,3.6,3.1,5.8,4.1
	c2.2,1,4.7,1.5,7.4,1.5c2.6,0,5.1-0.5,7.3-1.5c2.2-1,4.2-2.3,5.7-4.1c1.6-1.7,2.8-3.7,3.7-6c0.9-2.3,1.3-4.7,1.3-7.3V40.5z"/>
<path id="XMLID_34_" d="M205.1,65.5c-1.7,1.3-3.5,2.5-5.5,3.4c-2,0.9-4.2,1.7-6.5,2.2c-2.4,0.5-5,0.7-7.9,0.7
	c-4.4,0-8.5-0.8-12.3-2.4c-3.8-1.6-7.1-3.8-9.8-6.6c-2.8-2.8-4.9-6.1-6.5-9.9s-2.3-7.9-2.3-12.2v-0.2c0-4.3,0.8-8.4,2.3-12.1
	c1.6-3.8,3.7-7.1,6.5-9.9s6.1-5.1,9.9-6.7c3.9-1.6,8.1-2.5,12.8-2.5c2.8,0,5.4,0.2,7.7,0.7c2.3,0.5,4.4,1.1,6.3,1.9
	c1.9,0.8,3.7,1.8,5.3,2.9c1.6,1.2,3.1,2.4,4.5,3.8l-8.5,9.8c-2.4-2.1-4.8-3.8-7.2-5c-2.4-1.2-5.2-1.8-8.2-1.8c-2.5,0-4.9,0.5-7,1.5
	c-2.2,1-4,2.3-5.6,4.1s-2.8,3.7-3.6,6c-0.9,2.3-1.3,4.7-1.3,7.3v0.2c0,2.6,0.4,5,1.3,7.3c0.9,2.3,2.1,4.3,3.6,6
	c1.5,1.7,3.4,3.1,5.5,4.1c2.2,1,4.5,1.5,7.1,1.5c3.5,0,6.4-0.6,8.8-1.9c2.4-1.3,4.8-3,7.1-5.2l8.5,8.5
	C208.4,62.6,206.7,64.1,205.1,65.5z"/>
<path id="XMLID_36_" d="M265.9,70.7l-5.5-13.6h-25.6l-5.5,13.6h-13.6l25.9-60.9h12.3l25.9,60.9H265.9z M247.6,25.8l-8,19.6h16.1
	L247.6,25.8z"/>
<path id="XMLID_39_" d="M293,70.7V10.3h13.3v48.4h30.1v12H293z"/>
<path id="XMLID_41_" d="M345.8,70.7V10.3h13.3v60.4H345.8z"/>
<path id="XMLID_43_" d="M418.4,60.8c-1.1,2.3-2.6,4.3-4.5,5.9c-1.9,1.6-4.3,2.8-7,3.6c-2.7,0.8-5.7,1.3-9,1.3
	c-4.6,0-9.1-0.8-13.6-2.4c-4.4-1.6-8.5-4-12.1-7.3l7.9-9.4c2.8,2.2,5.6,4,8.5,5.4c2.9,1.3,6.1,2,9.5,2c2.8,0,4.9-0.5,6.4-1.5
	c1.5-1,2.3-2.4,2.3-4.2V54c0-0.9-0.2-1.6-0.5-2.3c-0.3-0.7-0.9-1.3-1.8-1.9c-0.9-0.6-2.1-1.2-3.7-1.7c-1.6-0.6-3.6-1.2-6.2-1.8
	c-3.1-0.7-5.8-1.6-8.3-2.5c-2.5-0.9-4.6-2.1-6.3-3.4c-1.7-1.4-3.1-3-4-5c-1-2-1.4-4.5-1.4-7.5v-0.2c0-2.8,0.5-5.3,1.5-7.5
	c1-2.2,2.5-4.1,4.3-5.7c1.9-1.6,4.1-2.8,6.7-3.7c2.6-0.9,5.4-1.3,8.5-1.3c4.4,0,8.5,0.7,12.2,2c3.7,1.3,7.1,3.2,10.2,5.7l-6.9,10
	c-2.7-1.8-5.4-3.3-7.9-4.4c-2.6-1.1-5.2-1.6-7.8-1.6s-4.5,0.5-5.8,1.5c-1.3,1-1.9,2.3-1.9,3.8v0.2c0,1,0.2,1.8,0.6,2.5
	c0.4,0.7,1.1,1.4,2,1.9c1,0.6,2.3,1.1,4,1.6c1.7,0.5,3.9,1.1,6.4,1.8c3.1,0.8,5.8,1.7,8.2,2.7c2.4,1,4.4,2.2,6.1,3.6
	c1.6,1.4,2.9,3.1,3.7,5c0.8,1.9,1.3,4.2,1.3,6.8v0.2C420,55.8,419.5,58.5,418.4,60.8z"/>
<path id="XMLID_45_" d="M432,70.7V10.3h45.5v11.8h-32.4v12.3h28.5v11.8h-28.5v12.7h32.8v11.8H432z"/>
<rect id="XMLID_1_" x="1.5" y="22.3" class="st0" width="498.5" height="13.3"/>
</svg>
