<?xml version="1.0" encoding="utf-8"?>
<!-- Generator: Adobe Illustrator 19.0.1, SVG Export Plug-In . SVG Version: 6.00 Build 0)  -->
<svg version="1.2" baseProfile="tiny" xmlns="http://www.w3.org/2000/svg" xmlns:xlink="http://www.w3.org/1999/xlink" x="0px"
	 y="0px" viewBox="0 0 500 500" xml:space="preserve">
<g id="Layer_2">
</g>
<g id="Layer_1">
	<g>
		<g>
			<circle fill="#4389C8" cx="249.8" cy="250" r="195.1"/>
		</g>
		<g>
			<g>
				<polygon fill="#FFFFFF" points="174.3,160.5 173.7,158.6 207.5,147.2 238.8,153 255.6,129.8 280.6,140.1 321.7,86.6 323.3,87.8 
					281.3,142.5 256.3,132.2 239.7,155.2 207.7,149.2 				"/>
			</g>
			<g>
				<polygon fill="#FFFFFF" points="328,80.2 327.1,90.8 326.1,101.3 317.4,95.3 308.7,89.2 318.4,84.7 				"/>
			</g>
		</g>
		<g>
			<path fill="#4389C8" d="M250,460.1c-115.9,0-210.1-94.3-210.1-210.1S134.1,39.9,250,39.9S460.1,134.1,460.1,250
				S365.9,460.1,250,460.1z M250,46.9C138,46.9,46.9,138,46.9,250c0,112,91.1,203.1,203.1,203.1c112,0,203.1-91.1,203.1-203.1
				C453.1,138,362,46.9,250,46.9z"/>
		</g>
		<g>
			<g>
				<path fill="#FFFFFF" d="M187.4,194.2c-0.6,1-1.3,1.8-2,2.3c-0.7,0.5-1.6,0.8-2.7,0.8c-1,0-2-0.3-3.1-0.9
					c-1.1-0.6-2.4-1.3-3.8-2.1c-1.4-0.8-3-1.4-4.9-2.1c-1.8-0.6-3.9-0.9-6.2-0.9c-4,0-7,0.9-9,2.6c-2,1.7-3,4-3,6.9
					c0,1.9,0.6,3.4,1.8,4.6c1.2,1.2,2.7,2.3,4.7,3.2c1.9,0.9,4.1,1.7,6.6,2.4c2.5,0.7,5,1.6,7.6,2.5c2.6,0.9,5.1,2,7.6,3.2
					c2.5,1.2,4.7,2.8,6.6,4.7c1.9,1.9,3.5,4.2,4.7,6.9c1.2,2.7,1.8,6,1.8,9.9c0,4.3-0.7,8.3-2.2,12c-1.5,3.7-3.6,7-6.4,9.7
					c-2.8,2.8-6.3,4.9-10.4,6.5c-4.1,1.6-8.8,2.4-14.1,2.4c-2.9,0-5.8-0.3-8.8-0.9c-3-0.6-5.9-1.4-8.7-2.5c-2.8-1.1-5.4-2.4-7.9-3.8
					c-2.5-1.5-4.6-3.1-6.4-4.9l6.3-10c0.5-0.7,1.2-1.3,2-1.8s1.7-0.7,2.7-0.7c1.3,0,2.5,0.4,3.8,1.2c1.3,0.8,2.7,1.7,4.4,2.7
					c1.6,1,3.5,1.9,5.6,2.7c2.1,0.8,4.6,1.2,7.5,1.2c3.9,0,6.9-0.9,9.1-2.6c2.2-1.7,3.2-4.4,3.2-8.2c0-2.2-0.6-3.9-1.8-5.3
					c-1.2-1.4-2.7-2.5-4.7-3.4c-1.9-0.9-4.1-1.7-6.6-2.3c-2.5-0.7-5-1.4-7.6-2.3c-2.6-0.8-5.1-1.8-7.6-3c-2.5-1.2-4.6-2.8-6.6-4.8
					c-1.9-2-3.5-4.4-4.7-7.4c-1.2-2.9-1.8-6.6-1.8-10.9c0-3.5,0.7-6.9,2.1-10.2c1.4-3.3,3.4-6.2,6.2-8.8c2.7-2.6,6-4.6,10-6.2
					c3.9-1.5,8.4-2.3,13.5-2.3c2.8,0,5.6,0.2,8.3,0.7c2.7,0.4,5.2,1.1,7.6,2c2.4,0.9,4.7,1.9,6.8,3.1s4,2.6,5.6,4.1L187.4,194.2z"/>
				<path fill="#FFFFFF" d="M228.2,191.9v21.6h29.1v15.9h-29.1v22h37.9v16.5h-59.5v-92.4h59.5v16.5H228.2z"/>
				<path fill="#FFFFFF" d="M368.2,221.6c0,6.7-1.2,12.9-3.5,18.7c-2.3,5.8-5.6,10.8-9.7,15c-4.2,4.3-9.2,7.6-15.1,10
					c-5.9,2.4-12.4,3.6-19.6,3.6s-13.7-1.2-19.7-3.6c-5.9-2.4-11-5.7-15.2-10c-4.2-4.3-7.5-9.3-9.8-15c-2.3-5.8-3.5-12-3.5-18.7
					c0-6.7,1.2-12.9,3.5-18.7c2.3-5.8,5.6-10.7,9.8-15c4.2-4.2,9.3-7.6,15.2-10c5.9-2.4,12.5-3.6,19.7-3.6s13.7,1.2,19.6,3.6
					c5.9,2.4,10.9,5.8,15.1,10c4.2,4.2,7.4,9.2,9.7,15C367,208.8,368.2,215,368.2,221.6z M346.2,221.6c0-4.6-0.6-8.7-1.8-12.3
					c-1.2-3.7-2.9-6.8-5.1-9.3s-4.9-4.5-8.2-5.8c-3.2-1.4-6.9-2-11-2c-4.1,0-7.8,0.7-11.1,2c-3.2,1.4-6,3.3-8.2,5.8
					c-2.2,2.5-3.9,5.6-5.1,9.3c-1.2,3.7-1.8,7.8-1.8,12.3c0,4.6,0.6,8.7,1.8,12.4c1.2,3.7,2.9,6.8,5.1,9.3c2.2,2.5,4.9,4.5,8.2,5.8
					c3.2,1.3,6.9,2,11.1,2c4.1,0,7.8-0.7,11-2c3.2-1.3,5.9-3.3,8.2-5.8s3.9-5.6,5.1-9.3C345.6,230.4,346.2,226.2,346.2,221.6z"/>
			</g>
			<g>
				<path fill="#FFFFFF" d="M159.3,295.2h-12v32.8h-5v-32.8h-12V291h28.9V295.2z"/>
				<path fill="#FFFFFF" d="M192.1,327.9h-4.4c-0.9,0-1.6-0.4-2-1.1l-9.6-13.2c-0.3-0.4-0.6-0.7-0.9-0.9c-0.3-0.2-0.9-0.3-1.6-0.3
					h-3.8v15.4h-5v-37h10.4c2.3,0,4.4,0.2,6.1,0.7c1.7,0.5,3.1,1.2,4.2,2c1.1,0.9,1.9,2,2.5,3.2c0.5,1.3,0.8,2.7,0.8,4.2
					c0,1.3-0.2,2.5-0.6,3.7s-1,2.2-1.8,3.1s-1.7,1.7-2.9,2.3c-1.1,0.6-2.4,1.1-3.8,1.4c0.6,0.4,1.2,0.9,1.7,1.6L192.1,327.9z
					 M175,308.9c1.4,0,2.7-0.2,3.8-0.5c1.1-0.4,2-0.9,2.8-1.5c0.7-0.6,1.3-1.4,1.7-2.3c0.4-0.9,0.6-1.9,0.6-3c0-2.2-0.7-3.9-2.2-5
					c-1.4-1.1-3.6-1.7-6.5-1.7h-5.5v14H175z"/>
				<path fill="#FFFFFF" d="M227.2,327.9h-3.9c-0.4,0-0.8-0.1-1.1-0.3s-0.5-0.5-0.6-0.9l-3.5-8.9h-16.6l-3.5,8.9
					c-0.1,0.3-0.3,0.6-0.6,0.8c-0.3,0.2-0.7,0.4-1.1,0.4h-3.9l14.8-37h5.1L227.2,327.9z M216.7,314.2l-5.8-15
					c-0.2-0.4-0.4-1-0.5-1.6c-0.2-0.6-0.4-1.2-0.5-1.9c-0.4,1.4-0.7,2.6-1.1,3.5l-5.8,15H216.7z"/>
				<path fill="#FFFFFF" d="M237,327.9h-5v-37h5V327.9z"/>
				<path fill="#FFFFFF" d="M276.4,291v37h-2.5c-0.4,0-0.7-0.1-1-0.2s-0.5-0.4-0.8-0.7l-21.4-27.9c0,0.4,0.1,0.9,0.1,1.3
					c0,0.4,0,0.8,0,1.2v26.3h-4.4v-37h2.6c0.2,0,0.4,0,0.6,0c0.2,0,0.3,0.1,0.4,0.1c0.1,0.1,0.2,0.1,0.4,0.3
					c0.1,0.1,0.2,0.3,0.4,0.4l21.4,27.8c0-0.4-0.1-0.9-0.1-1.3c0-0.4,0-0.8,0-1.2V291H276.4z"/>
				<path fill="#FFFFFF" d="M290.9,327.9h-5v-37h5V327.9z"/>
				<path fill="#FFFFFF" d="M330.2,291v37h-2.5c-0.4,0-0.7-0.1-1-0.2s-0.5-0.4-0.8-0.7l-21.4-27.9c0,0.4,0.1,0.9,0.1,1.3
					c0,0.4,0,0.8,0,1.2v26.3h-4.4v-37h2.6c0.2,0,0.4,0,0.6,0c0.2,0,0.3,0.1,0.4,0.1c0.1,0.1,0.2,0.1,0.4,0.3
					c0.1,0.1,0.2,0.3,0.4,0.4l21.4,27.8c0-0.4-0.1-0.9-0.1-1.3c0-0.4,0-0.8,0-1.2V291H330.2z"/>
				<path fill="#FFFFFF" d="M369.7,310.2v14.2c-1.9,1.3-3.8,2.3-5.9,3c-2.1,0.7-4.4,1-6.9,1c-3,0-5.7-0.5-8-1.4
					c-2.4-0.9-4.4-2.2-6.1-3.9s-3-3.6-3.9-6c-0.9-2.3-1.4-4.9-1.4-7.7c0-2.8,0.4-5.4,1.3-7.7c0.9-2.3,2.1-4.3,3.8-6
					c1.6-1.7,3.6-2.9,6-3.9s5-1.4,7.8-1.4c1.5,0,2.8,0.1,4.1,0.3c1.3,0.2,2.4,0.5,3.5,0.9c1.1,0.4,2.1,0.9,3,1.5
					c0.9,0.6,1.8,1.2,2.6,1.9l-1.4,2.3c-0.2,0.3-0.5,0.6-0.9,0.7s-0.7,0-1.2-0.2c-0.4-0.2-0.9-0.5-1.4-0.9c-0.5-0.3-1.2-0.7-1.9-1
					c-0.8-0.3-1.7-0.6-2.7-0.8c-1-0.2-2.3-0.3-3.7-0.3c-2.1,0-4,0.3-5.6,1c-1.7,0.7-3.1,1.7-4.3,2.9c-1.2,1.3-2.1,2.8-2.7,4.6
					c-0.6,1.8-1,3.8-1,6c0,2.3,0.3,4.4,1,6.2s1.6,3.4,2.8,4.7c1.2,1.3,2.7,2.3,4.5,2.9c1.8,0.7,3.7,1,5.9,1c1.7,0,3.2-0.2,4.6-0.6
					c1.3-0.4,2.6-0.9,3.9-1.6V314h-5.8c-0.3,0-0.6-0.1-0.8-0.3s-0.3-0.4-0.3-0.7v-2.8H369.7z"/>
			</g>
			<g>
				<path fill="#FFFFFF" d="M152.9,347.4v17.7h-1.3v-8.5h-11.1v8.5h-1.3v-17.7h1.3v8.3h11.1v-8.3H152.9z"/>
				<path fill="#FFFFFF" d="M173.9,356.3c0,1.4-0.2,2.6-0.6,3.7c-0.4,1.1-1,2.1-1.7,2.9c-0.7,0.8-1.6,1.4-2.7,1.8
					c-1,0.4-2.2,0.6-3.4,0.6c-1.3,0-2.4-0.2-3.4-0.6s-1.9-1-2.7-1.8c-0.7-0.8-1.3-1.7-1.7-2.9c-0.4-1.1-0.6-2.4-0.6-3.7
					c0-1.4,0.2-2.6,0.6-3.7c0.4-1.1,1-2.1,1.7-2.9c0.7-0.8,1.6-1.4,2.7-1.8s2.2-0.7,3.4-0.7c1.3,0,2.4,0.2,3.4,0.6
					c1,0.4,1.9,1,2.7,1.8s1.3,1.7,1.7,2.9C173.7,353.7,173.9,354.9,173.9,356.3z M172.6,356.3c0-1.2-0.2-2.3-0.5-3.3
					c-0.3-1-0.8-1.8-1.5-2.5c-0.6-0.7-1.4-1.2-2.3-1.6s-1.8-0.5-2.9-0.5c-1.1,0-2,0.2-2.9,0.5c-0.9,0.4-1.6,0.9-2.3,1.6
					c-0.6,0.7-1.1,1.5-1.5,2.5c-0.3,1-0.5,2.1-0.5,3.3c0,1.2,0.2,2.4,0.5,3.3c0.3,1,0.8,1.8,1.5,2.5c0.6,0.7,1.4,1.2,2.3,1.6
					c0.9,0.4,1.8,0.5,2.9,0.5c1.1,0,2-0.2,2.9-0.5c0.9-0.4,1.6-0.9,2.3-1.6c0.6-0.7,1.1-1.5,1.5-2.5S172.6,357.5,172.6,356.3z"/>
				<path fill="#FFFFFF" d="M200.1,347.4l-5.6,17.7h-1.2l-5.2-15.4c-0.1-0.2-0.1-0.4-0.2-0.7c0,0.2-0.1,0.4-0.2,0.7l-5.2,15.4h-1.1
					l-5.6-17.7h1.1c0.2,0,0.4,0.1,0.5,0.3l4.5,14.6c0.1,0.3,0.2,0.7,0.2,1.1c0-0.2,0.1-0.4,0.1-0.6c0-0.2,0.1-0.4,0.1-0.5l5-14.6
					c0-0.1,0.1-0.2,0.2-0.2s0.2-0.1,0.3-0.1h0.4c0.1,0,0.2,0,0.3,0.1c0.1,0.1,0.1,0.1,0.2,0.2l5,14.6c0.1,0.2,0.1,0.3,0.2,0.5
					c0,0.2,0.1,0.4,0.1,0.6c0-0.2,0.1-0.4,0.1-0.6c0-0.2,0.1-0.4,0.1-0.5l4.5-14.6c0-0.1,0.1-0.2,0.2-0.2c0.1-0.1,0.2-0.1,0.3-0.1
					H200.1z"/>
				<path fill="#FFFFFF" d="M220.3,348.5h-6.2v16.6h-1.3v-16.6h-6.3v-1.1h13.8V348.5z"/>
				<path fill="#FFFFFF" d="M238,356.3c0,1.4-0.2,2.6-0.6,3.7c-0.4,1.1-1,2.1-1.7,2.9c-0.7,0.8-1.6,1.4-2.7,1.8
					c-1,0.4-2.2,0.6-3.4,0.6c-1.3,0-2.4-0.2-3.4-0.6s-1.9-1-2.7-1.8c-0.7-0.8-1.3-1.7-1.7-2.9c-0.4-1.1-0.6-2.4-0.6-3.7
					c0-1.4,0.2-2.6,0.6-3.7c0.4-1.1,1-2.1,1.7-2.9c0.7-0.8,1.6-1.4,2.7-1.8s2.2-0.7,3.4-0.7c1.3,0,2.4,0.2,3.4,0.6
					c1,0.4,1.9,1,2.7,1.8s1.3,1.7,1.7,2.9C237.8,353.7,238,354.9,238,356.3z M236.7,356.3c0-1.2-0.2-2.3-0.5-3.3
					c-0.3-1-0.8-1.8-1.5-2.5c-0.6-0.7-1.4-1.2-2.3-1.6s-1.8-0.5-2.9-0.5c-1.1,0-2,0.2-2.9,0.5c-0.9,0.4-1.6,0.9-2.3,1.6
					c-0.6,0.7-1.1,1.5-1.5,2.5c-0.3,1-0.5,2.1-0.5,3.3c0,1.2,0.2,2.4,0.5,3.3c0.3,1,0.8,1.8,1.5,2.5c0.6,0.7,1.4,1.2,2.3,1.6
					c0.9,0.4,1.8,0.5,2.9,0.5c1.1,0,2-0.2,2.9-0.5c0.9-0.4,1.6-0.9,2.3-1.6c0.6-0.7,1.1-1.5,1.5-2.5S236.7,357.5,236.7,356.3z"/>
				<path fill="#FFFFFF" d="M263,357.1v6.3c-0.9,0.6-1.8,1.1-2.8,1.4c-1,0.3-2.1,0.5-3.4,0.5c-1.4,0-2.7-0.2-3.8-0.6s-2.1-1-2.9-1.8
					c-0.8-0.8-1.4-1.7-1.8-2.9s-0.6-2.4-0.6-3.7c0-1.4,0.2-2.6,0.6-3.7c0.4-1.1,1-2.1,1.8-2.9c0.8-0.8,1.7-1.4,2.8-1.8
					c1.1-0.4,2.3-0.6,3.7-0.6c0.7,0,1.3,0,1.9,0.1c0.6,0.1,1.1,0.2,1.6,0.4s1,0.4,1.4,0.7s0.8,0.6,1.2,0.9l-0.3,0.6
					c-0.1,0.2-0.3,0.2-0.5,0.1c-0.1,0-0.3-0.2-0.5-0.3c-0.2-0.2-0.6-0.4-1-0.6c-0.4-0.2-0.9-0.4-1.5-0.5s-1.3-0.2-2.2-0.2
					c-1.2,0-2.2,0.2-3.1,0.6c-0.9,0.4-1.7,0.9-2.4,1.6c-0.7,0.7-1.2,1.5-1.5,2.5s-0.5,2.1-0.5,3.3c0,1.2,0.2,2.4,0.5,3.4
					s0.9,1.8,1.5,2.5c0.7,0.7,1.5,1.2,2.4,1.6c1,0.4,2,0.6,3.2,0.6c0.5,0,1,0,1.5-0.1c0.4-0.1,0.9-0.2,1.3-0.3s0.8-0.3,1.2-0.5
					c0.4-0.2,0.8-0.4,1.2-0.6v-4.8h-3.4c-0.1,0-0.2,0-0.2-0.1s-0.1-0.1-0.1-0.2v-0.7H263z"/>
				<path fill="#FFFFFF" d="M277.9,364.1l0,1.1h-10.6v-17.7h10.6v1.1h-9.3v7.2h7.8v1h-7.8v7.4H277.9z"/>
				<path fill="#FFFFFF" d="M293.3,348.5h-6.2v16.6h-1.3v-16.6h-6.3v-1.1h13.8V348.5z"/>
				<path fill="#FFFFFF" d="M313.1,348.5h-6.2v16.6h-1.3v-16.6h-6.3v-1.1h13.8V348.5z"/>
				<path fill="#FFFFFF" d="M330.8,356.3c0,1.4-0.2,2.6-0.6,3.7c-0.4,1.1-1,2.1-1.7,2.9c-0.7,0.8-1.6,1.4-2.7,1.8s-2.2,0.6-3.4,0.6
					s-2.4-0.2-3.4-0.6c-1-0.4-1.9-1-2.7-1.8c-0.7-0.8-1.3-1.7-1.7-2.9c-0.4-1.1-0.6-2.4-0.6-3.7c0-1.4,0.2-2.6,0.6-3.7
					c0.4-1.1,1-2.1,1.7-2.9c0.7-0.8,1.6-1.4,2.7-1.8c1-0.4,2.2-0.7,3.4-0.7s2.4,0.2,3.4,0.6c1,0.4,1.9,1,2.7,1.8
					c0.7,0.8,1.3,1.7,1.7,2.9C330.6,353.7,330.8,354.9,330.8,356.3z M329.4,356.3c0-1.2-0.2-2.3-0.5-3.3c-0.3-1-0.8-1.8-1.5-2.5
					c-0.6-0.7-1.4-1.2-2.3-1.6s-1.8-0.5-2.9-0.5c-1.1,0-2,0.2-2.9,0.5s-1.6,0.9-2.3,1.6c-0.6,0.7-1.1,1.5-1.5,2.5
					c-0.3,1-0.5,2.1-0.5,3.3c0,1.2,0.2,2.4,0.5,3.3c0.3,1,0.8,1.8,1.5,2.5c0.6,0.7,1.4,1.2,2.3,1.6c0.9,0.4,1.8,0.5,2.9,0.5
					c1.1,0,2-0.2,2.9-0.5c0.9-0.4,1.6-0.9,2.3-1.6s1.1-1.5,1.5-2.5S329.4,357.5,329.4,356.3z"/>
				<path fill="#FFFFFF" d="M353.5,351.8l-0.3,1.6c-0.1,0.4-0.2,0.7-0.5,0.9c-0.3,0.2-0.7,0.3-1.2,0.3h-0.8l-0.5,3h1.4
					c0.4,0,0.7,0.1,0.8,0.3c0.2,0.2,0.2,0.6,0.1,1.2l-0.2,1.2h-2.5l-0.9,4.9h-1.8c-0.2,0-0.3,0-0.5-0.1c-0.2-0.1-0.3-0.2-0.4-0.3
					s-0.2-0.3-0.2-0.5c0-0.2,0-0.4,0-0.6l0.6-3.4h-2.1l-0.6,3.6c0,0.2-0.1,0.4-0.2,0.6c-0.1,0.2-0.2,0.3-0.4,0.4
					c-0.2,0.1-0.3,0.2-0.5,0.2s-0.4,0.1-0.6,0.1h-1.7l0.9-4.9h-1.1c-0.4,0-0.7-0.1-0.8-0.3c-0.2-0.2-0.2-0.6-0.1-1.2l0.2-1.2h2.2
					l0.5-3h-2.5l0.3-1.6c0.1-0.4,0.2-0.7,0.5-0.9c0.3-0.2,0.7-0.3,1.2-0.3h0.9l0.7-3.7c0.1-0.4,0.3-0.7,0.6-0.9
					c0.3-0.2,0.7-0.3,1.1-0.3h1.8l-0.9,4.9h2.1l0.9-4.9h1.7c0.2,0,0.4,0,0.5,0.1c0.2,0.1,0.3,0.2,0.4,0.3c0.1,0.1,0.2,0.2,0.2,0.4
					c0,0.2,0.1,0.3,0,0.5l-0.7,3.6H353.5z M347.5,354.5h-2.1l-0.5,3h2.1L347.5,354.5z"/>
				<path fill="#FFFFFF" d="M366.7,362.3v2.8h-10.4v-2.8h3.5v-9.2c0-0.2,0-0.5,0-0.7c0-0.2,0-0.5,0-0.7l-2.1,1.7
					c-0.2,0.1-0.4,0.2-0.5,0.3c-0.2,0-0.3,0-0.5,0c-0.2,0-0.3-0.1-0.4-0.2s-0.2-0.2-0.3-0.2l-1.2-1.6l5.7-4.8h3.2v15.4H366.7z"/>
			</g>
		</g>
	</g>
</g>
</svg>
